documento
…
Inicialmente, se diseñaron dos modelos CNN:

Un modelo con 2 capas de convolución, cada una con 4 filtros, y una capa densa con 64 neuronas.

Un modelo con 4 capas de convolución, cada una con 16 filtros, y una capa densa con 128 neuronas.

Ambos modelos fueron entrenados durante 3 épocas para evaluar su desempeño y tiempo de entrenamiento. Posteriormente, se incrementó gradualmente el número de épocas con la intención de alcanzar una precisión superior al 90%. Se encontró que el modelo de 2 convoluciones lograba esta precisión con 10 épocas, con un tiempo de entrenamiento medio entre 1 y 1.5 minutos por época. Sin embargo, el modelo de 4 convoluciones, a pesar de su mayor complejidad, no alcanzaba la precisión deseada en un tiempo aceptable, lo que podría atribuirse a la reducción excesiva de la imagen debido a la aplicación de múltiples convoluciones en imágenes tan pequeñas.

Ante la dificultad de entrenamiento y los límites de capacidad computacional, se evaluó un enfoque más simple con un modelo de 1 convolución, logrando la precisión esperada en menos de 1 minuto de entrenamiento por época, lo que demostró ser más eficiente y efectivo dadas las limitaciones del entorno de cómputo disponible.

2. Análisis

2.1 Datos

# A tibble: 50 × 6
   orden tratamiento convoluciones filtros densa exactitud
   <dbl> <chr>       <fct>         <fct>   <fct>     <dbl>
 1     1 C1_F4_D64   1             4       64         81.0
 2     2 C1_F4_D128  1             4       128        85.4
 3     3 C1_F16_D64  1             16      64         85.9
 4     4 C1_F16_D128 1             16      128        90.9
 5     5 C2_F4_D64   2             4       64         76.5
 6     6 C2_F4_D128  2             4       128        84.9
 7     7 C2_F16_D64  2             16      64         92.3
 8     8 C2_F16_D128 2             16      128        96.5
 9     9 C1_F4_D64   1             4       64         82.1
10    10 C1_F4_D128  1             4       128        86.7
# ℹ 40 more rows
…
